Task1/quartus/P1/Q3/simulation/qsim/q3.msim.vcd
$comment
	File created using the following command:
		vcd file q3.msim.vcd -direction
$end
$date
	Mon Apr 10 21:18:44 2023
$end
$version
	ModelSim Version 10.5b
$end
$timescale
	1ps
$end

$scope module q3_vlg_vec_tst $end
$var reg 1 ! x1 $end
$var reg 1 " x2 $end
$var reg 1 # x3 $end
$var reg 1 $ x4 $end
$var reg 1 % x5 $end
$var wire 1 & f $end

$scope module i1 $end
$var wire 1 ' gnd $end
$var wire 1 ( vcc $end
$var wire 1 ) unknown $end
$var tri1 1 * devclrn $end
$var tri1 1 + devpor $end
$var tri1 1 , devoe $end
$var wire 1 - x1~combout $end
$var wire 1 . x2~combout $end
$var wire 1 / x5~combout $end
$var wire 1 0 x3~combout $end
$var wire 1 1 finalsum~1_combout $end
$var wire 1 2 finalsum~0_combout $end
$var wire 1 3 x4~combout $end
$var wire 1 4 finalsum~2_combout $end
$upscope $end
$upscope $end
$enddefinitions $end
#0
$dumpvars
0!
0"
0#
0$
0%
1&
0'
1(
x)
1*
1+
1,
0-
0.
0/
00
01
02
03
14
$end
#10000
1%
1/
11
#20000
1$
0%
13
0/
04
01
14
0&
1&
#30000
1%
1/
11
04
0&
#40000
1#
0$
0%
10
03
0/
12
01
14
04
1&
0&
#50000
1%
1/
02
11
14
1&
#60000
1$
0%
13
0/
04
12
01
0&
#70000
1%
1/
02
11
#80000
1"
0#
0$
0%
1.
00
03
0/
14
1&
#90000
1%
1/
#100000
1$
0%
13
0/
04
0&
#110000
1%
1/
#120000
1#
0$
0%
10
03
0/
01
14
1&
#130000
1%
1/
12
04
0&
#140000
1$
0%
13
0/
02
14
1&
#150000
1%
1/
12
04
0&
#160000
1!
0"
0#
0$
0%
1-
0.
00
03
0/
#170000
1%
1/
02
14
1&
#180000
1$
0%
13
0/
12
04
0&
#190000
1%
1/
02
14
1&
#200000
1#
0$
0%
10
03
0/
12
04
0&
#210000
1%
1/
02
11
14
1&
#220000
1$
0%
13
0/
04
12
01
0&
#230000
1%
1/
02
11
#240000
1"
0#
0$
0%
1.
00
03
0/
12
01
14
04
1&
0&
#250000
1%
1/
11
#260000
1$
0%
13
0/
14
01
04
1&
0&
#270000
1%
1/
11
14
1&
#280000
1#
0$
0%
10
03
0/
01
04
0&
#290000
1%
1/
#300000
1$
0%
13
0/
#310000
1%
1/
