Task2/P1/simulation/qsim/P1.msim.vcd
$comment
	File created using the following command:
		vcd file P1.msim.vcd -direction
$end
$date
	Thu Jun  8 12:53:05 2023
$end
$version
	ModelSim Version 10.5b
$end
$timescale
	1ps
$end

$scope module alu_vhd_vec_tst $end
$var wire 1 ! a $end
$var wire 1 " b $end
$var wire 1 # cin $end
$var wire 1 $ cout $end
$var wire 1 % res $end
$var wire 1 & s [0] $end
$var wire 1 ' s [1] $end
$var wire 1 ( s [2] $end
$var wire 1 ) s [3] $end

$scope module i1 $end
$var wire 1 * gnd $end
$var wire 1 + vcc $end
$var wire 1 , unknown $end
$var wire 1 - devoe $end
$var wire 1 . devclrn $end
$var wire 1 / devpor $end
$var wire 1 0 ww_devoe $end
$var wire 1 1 ww_devclrn $end
$var wire 1 2 ww_devpor $end
$var wire 1 3 ww_cin $end
$var wire 1 4 ww_a $end
$var wire 1 5 ww_b $end
$var wire 1 6 ww_s [0] $end
$var wire 1 7 ww_s [1] $end
$var wire 1 8 ww_s [2] $end
$var wire 1 9 ww_s [3] $end
$var wire 1 : ww_cout $end
$var wire 1 ; ww_res $end
$var wire 1 < \b~combout\ $end
$var wire 1 = \cin~combout\ $end
$var wire 1 > \a~combout\ $end
$var wire 1 ? \Adder_1bit|sum~0_combout\ $end
$var wire 1 @ \Adder_1bit|cout~0_combout\ $end
$var wire 1 A \Output_Mux|Mux0~0_combout\ $end
$var wire 1 B \Output_Mux|Mux0~1_combout\ $end
$var wire 1 C \Output_Mux|Mux0~2_combout\ $end
$var wire 1 D \s~combout\ [0] $end
$var wire 1 E \s~combout\ [1] $end
$var wire 1 F \s~combout\ [2] $end
$var wire 1 G \s~combout\ [3] $end
$upscope $end
$upscope $end
$enddefinitions $end
#0
$dumpvars
0!
0"
0#
0$
0%
0*
1+
x,
1-
1.
1/
10
11
12
03
04
05
0:
0;
0<
0=
0>
0?
0@
0A
0B
0C
0&
0'
0(
0)
06
07
08
09
0D
0E
0F
0G
$end
#20000
1&
16
1D
1?
#40000
0&
1'
17
06
0D
1E
1@
1B
0?
0@
1:
1$
0:
0$
#60000
1&
16
1D
1?
1@
1C
1;
1:
1%
1$
#80000
0&
0'
1(
18
07
06
0D
0E
1F
0C
0@
0B
0?
0:
0;
0$
0%
#100000
1&
16
1D
1?
1C
1;
1%
#120000
0&
1'
17
06
0D
1E
1@
1B
0?
0@
1:
1$
0:
0$
#140000
1&
16
1D
1?
1@
0C
0;
1:
0%
1$
#160000
0&
0'
0(
1)
19
08
07
06
0D
0E
0F
1G
1C
0@
0B
0?
0C
0:
1;
0$
1%
0;
0%
#180000
1&
16
1D
1?
1A
1C
1;
1%
#200000
0&
1'
17
06
0D
1E
1@
1B
0?
0A
0@
1:
1$
0:
0$
#220000
1&
16
1D
1?
1A
1@
1:
1$
#240000
0&
0'
1(
18
07
06
0D
0E
1F
0@
0?
0A
0B
0:
0$
0C
0;
0%
#260000
1&
16
1D
1?
1A
1B
1C
1;
1%
#280000
0&
1'
17
06
0D
1E
1@
0B
0?
0A
1B
0@
0C
1:
1$
0;
0:
1C
0%
0$
1;
1%
#300000
1&
16
1D
1?
1A
0B
1@
1:
0C
1$
0;
0%
#320000
0&
0'
0(
0)
1#
09
08
07
06
13
1=
0D
0E
0F
0G
0?
0@
0:
0$
#340000
1&
16
1D
1?
1@
1:
1$
#360000
0&
1'
17
06
0D
1E
1B
0?
#380000
1&
16
1D
1?
1C
1;
1%
#400000
0&
0'
1(
18
07
06
0D
0E
1F
0C
0?
0@
1C
0;
0%
1;
0:
1%
0$
#420000
1&
16
1D
1?
1@
0C
0;
1:
0%
1$
#440000
0&
1'
17
06
0D
1E
0B
0?
#460000
1&
16
1D
1?
1C
1;
1%
#480000
0&
0'
0(
1)
19
08
07
06
0D
0E
0F
1G
0?
0A
0@
0C
0;
0:
0%
0$
#500000
1&
16
1D
1?
1A
1@
1C
1;
1:
1%
1$
#520000
0&
1'
17
06
0D
1E
1B
0?
0A
#540000
1&
16
1D
1?
1A
#560000
0&
0'
1(
18
07
06
0D
0E
1F
0?
0A
0B
0@
0:
0C
0$
0;
0%
#580000
1&
16
1D
1?
1A
1B
1@
1:
1C
1$
1;
1%
#600000
0&
1'
17
06
0D
1E
0B
0?
0A
1B
0C
0;
1C
0%
1;
1%
#620000
1&
16
1D
1?
1A
0B
0C
0;
0%
#640000
0&
0'
0(
0)
0#
1"
09
08
07
06
03
15
1<
0=
0D
0E
0F
0G
0?
0A
1B
0@
0:
0$
#660000
1&
16
1D
1?
1@
1C
1;
1:
1%
1$
#680000
0&
1'
17
06
0D
1E
0@
0B
0?
0C
0:
0$
0;
0%
#700000
1&
16
1D
1?
#720000
0&
0'
1(
18
07
06
0D
0E
1F
1C
1@
1B
0?
0@
1:
1;
1$
1%
0:
0$
#740000
1&
16
1D
1?
1@
0C
0;
1:
0%
1$
#760000
0&
1'
17
06
0D
1E
0@
0B
0?
0:
0$
#780000
1&
16
1D
1?
1C
1;
1%
#800000
0&
0'
0(
1)
19
08
07
06
0D
0E
0F
1G
1@
1B
0?
0@
1:
1$
0:
0$
#820000
1&
16
1D
1?
1A
1@
1:
1$
#840000
0&
1'
17
06
0D
1E
0@
0B
0?
0A
0C
0:
0$
0;
0%
#860000
1&
16
1D
1?
1A
1C
1;
1%
#880000
0&
0'
1(
18
07
06
0D
0E
1F
0C
1@
0?
0A
1B
0@
1:
0;
1$
0%
0:
1C
0$
1;
1%
#900000
1&
16
1D
1?
1A
0B
1@
1:
0C
1$
0;
0%
#920000
0&
1'
17
06
0D
1E
0@
1B
0?
0A
0B
1C
0:
0$
1;
0C
1%
0;
0%
#940000
1&
16
1D
1?
1A
1B
1C
1;
1%
#960000
0&
0'
0(
0)
1#
09
08
07
06
13
1=
0D
0E
0F
0G
0?
1@
1:
0C
1$
0;
0%
#980000
1&
16
1D
1?
1C
1;
1%
#1000000
0&
1'
17
06
0D
1E
0B
0?
0@
0C
0;
0:
0%
0$
#1020000
1&
16
1D
1?
1@
1:
1$
#1040000
0&
0'
1(
18
07
06
0D
0E
1F
1C
0?
0C
1;
1%
0;
0%
#1060000
1&
16
1D
1?
1C
1;
1%
#1080000
0&
1'
17
06
0D
1E
1B
0?
0@
0:
0$
#1100000
1&
16
1D
1?
1@
0C
0;
1:
0%
1$
#1120000
0&
0'
0(
1)
19
08
07
06
0D
0E
0F
1G
1C
0?
0A
1;
1%
#1140000
1&
16
1D
1?
1A
#1160000
0&
1'
17
06
0D
1E
0B
0?
0A
0@
0C
0;
0:
0%
0$
#1180000
1&
16
1D
1?
1A
1@
1C
1;
1:
1%
1$
#1200000
0&
0'
1(
18
07
06
0D
0E
1F
0C
0?
0A
1B
0;
0%
1C
1;
1%
#1220000
1&
16
1D
1?
1A
0B
0C
0;
0%
#1240000
0&
1'
17
06
0D
1E
1B
0?
0A
0B
0@
1C
1;
0:
0C
1%
0$
0;
0%
#1260000
1&
16
1D
1?
1A
1B
1@
1:
1C
1$
1;
1%
#1280000
0&
0'
0(
0)
0#
0"
1!
09
08
07
06
03
05
14
1>
0<
0=
0D
0E
0F
0G
0@
0B
0A
0C
0:
0$
0;
0%
#1300000
1&
16
1D
0?
#1320000
0&
1'
17
06
0D
1E
1B
1?
1@
1C
1;
1:
1%
1$
#1340000
1&
16
1D
0?
0@
0C
0;
0:
0%
0$
#1360000
0&
0'
1(
18
07
06
0D
0E
1F
1C
0B
1?
1;
1%
#1380000
1&
16
1D
0?
0C
0;
0%
#1400000
0&
1'
17
06
0D
1E
1B
1?
1@
1:
1$
#1420000
1&
16
1D
0?
0@
1C
1;
0:
1%
0$
#1440000
0&
0'
0(
1)
19
08
07
06
0D
0E
0F
1G
0B
1?
1A
#1460000
1&
16
1D
0?
0A
0C
0;
0%
#1480000
0&
1'
17
06
0D
1E
1B
1?
1A
1@
1C
1;
1:
1%
1$
#1500000
1&
16
1D
0?
0A
0@
0:
0$
#1520000
0&
0'
1(
18
07
06
0D
0E
1F
0B
1?
1A
1B
0C
0;
1C
0%
1;
1%
#1540000
1&
16
1D
0?
0A
0B
0C
0;
0%
#1560000
0&
1'
17
06
0D
1E
1B
1?
1A
0B
1@
1C
1;
1:
0C
1%
1$
0;
0%
#1580000
1&
16
1D
0?
0A
1B
0@
0:
1C
0$
1;
1%
#1600000
0&
0'
0(
0)
1#
09
08
07
06
13
1=
0D
0E
0F
0G
0C
0B
1?
1A
1@
0;
0%
1:
1$
#1620000
1&
16
1D
0?
0@
0:
0$
#1640000
0&
1'
17
06
0D
1E
1@
1B
1?
1C
1:
1$
1;
1%
#1660000
1&
16
1D
0?
0C
0;
0%
#1680000
0&
0'
1(
18
07
06
0D
0E
1F
1C
0@
1?
1@
0C
0:
1;
0$
1%
0;
1:
0%
1$
#1700000
1&
16
1D
0?
0@
1C
1;
0:
1%
0$
#1720000
0&
1'
17
06
0D
1E
1@
0B
1?
1:
1$
#1740000
1&
16
1D
0?
0C
0;
0%
#1760000
0&
0'
0(
1)
19
08
07
06
0D
0E
0F
1G
0@
1?
1@
1C
0:
0$
1;
1:
1%
1$
#1780000
1&
16
1D
0?
0A
0@
0C
0;
0:
0%
0$
#1800000
0&
1'
17
06
0D
1E
1@
1B
1?
1A
1C
1:
1$
1;
1%
#1820000
1&
16
1D
0?
0A
#1840000
0&
0'
1(
18
07
06
0D
0E
1F
0@
0B
1?
1A
1B
1@
0C
0:
0$
0;
1:
1C
0%
1$
1;
1%
#1860000
1&
16
1D
0?
0A
0B
0@
0:
0C
0$
0;
0%
#1880000
0&
1'
17
06
0D
1E
1@
1B
1?
1A
0B
1C
1:
1$
1;
0C
1%
0;
0%
#1900000
1&
16
1D
0?
0A
1B
1C
1;
1%
#1920000
0&
0'
0(
0)
0#
1"
09
08
07
06
03
15
1<
0=
0D
0E
0F
0G
0C
1?
0@
0:
1@
1C
0;
0$
0%
1;
1:
1%
1$
#1940000
1&
16
1D
0?
0@
0C
0;
0:
0%
0$
#1960000
0&
1'
17
06
0D
1E
0B
1?
#1980000
1&
16
1D
0?
#2000000
0&
0'
1(
18
07
06
0D
0E
1F
1B
1?
1@
1:
1$
#2020000
1&
16
1D
0?
0@
1C
1;
0:
1%
0$
#2040000
0&
1'
17
06
0D
1E
0B
1?
#2060000
1&
16
1D
0?
0C
0;
0%
#2080000
0&
0'
0(
1)
19
08
07
06
0D
0E
0F
1G
1B
1?
1A
1@
1C
1;
1:
1%
1$
#2100000
1&
16
1D
0?
0A
0@
0:
0$
#2120000
0&
1'
17
06
0D
1E
0B
1?
1A
#2140000
1&
16
1D
0?
0A
0C
0;
0%
#2160000
0&
0'
1(
18
07
06
0D
0E
1F
1B
1?
1A
0B
1@
1C
1;
1:
0C
1%
1$
0;
0%
#2180000
1&
16
1D
0?
0A
1B
0@
0:
1C
0$
1;
1%
#2200000
0&
1'
17
06
0D
1E
0B
1?
1A
1B
0C
0;
1C
0%
1;
1%
#2220000
1&
16
1D
0?
0A
0B
0C
0;
0%
#2240000
0&
0'
0(
0)
1#
09
08
07
06
13
1=
0D
0E
0F
0G
1B
1?
1@
1A
1:
1C
1$
1;
1%
#2260000
1&
16
1D
0?
0C
0;
0%
#2280000
0&
1'
17
06
0D
1E
0@
0B
1?
1@
0:
0$
1:
1$
#2300000
1&
16
1D
0?
0@
0:
0$
#2320000
0&
0'
1(
18
07
06
0D
0E
1F
1@
1?
1C
1:
1$
1;
1%
#2340000
1&
16
1D
0?
0C
0;
0%
#2360000
0&
1'
17
06
0D
1E
0@
1B
1?
1@
0:
0$
1:
1$
#2380000
1&
16
1D
0?
0@
1C
1;
0:
1%
0$
#2400000
0&
0'
0(
1)
19
08
07
06
0D
0E
0F
1G
1@
1?
1:
1$
#2420000
1&
16
1D
0?
0A
#2440000
0&
1'
17
06
0D
1E
0@
0B
1?
1A
1@
0:
0$
1:
1$
#2460000
1&
16
1D
0?
0A
0@
0C
0;
0:
0%
0$
#2480000
0&
0'
1(
18
07
06
0D
0E
1F
1@
1B
1?
1A
0B
1C
1:
1$
1;
0C
1%
0;
0%
#2500000
1&
16
1D
0?
0A
1B
1C
1;
1%
#2520000
0&
1'
17
06
0D
1E
0@
0B
1?
1A
1B
1@
0C
0:
0$
0;
1:
1C
0%
1$
1;
1%
#2540000
1&
16
1D
0?
0A
0B
0@
0:
0C
0$
0;
0%
