Task1/quartus/P1/Q2/simulation/qsim/q2.msim.vcd
$comment
	File created using the following command:
		vcd file q2.msim.vcd -direction
$end
$date
	Mon Apr 10 19:56:52 2023
$end
$version
	ModelSim Version 10.5b
$end
$timescale
	1ps
$end

$scope module q2_vhd_vec_tst $end
$var wire 1 ! f $end
$var wire 1 " x1 $end
$var wire 1 # x2 $end
$var wire 1 $ x3 $end
$var wire 1 % x4 $end
$var wire 1 & x5 $end

$scope module i1 $end
$var wire 1 ' gnd $end
$var wire 1 ( vcc $end
$var wire 1 ) unknown $end
$var wire 1 * devoe $end
$var wire 1 + devclrn $end
$var wire 1 , devpor $end
$var wire 1 - ww_devoe $end
$var wire 1 . ww_devclrn $end
$var wire 1 / ww_devpor $end
$var wire 1 0 ww_x1 $end
$var wire 1 1 ww_x2 $end
$var wire 1 2 ww_x3 $end
$var wire 1 3 ww_x4 $end
$var wire 1 4 ww_x5 $end
$var wire 1 5 ww_f $end
$var wire 1 6 \x5~combout\ $end
$var wire 1 7 \x4~combout\ $end
$var wire 1 8 \x3~combout\ $end
$var wire 1 9 \x2~combout\ $end
$var wire 1 : \f~1_combout\ $end
$var wire 1 ; \f~0_combout\ $end
$var wire 1 < \x1~combout\ $end
$var wire 1 = \f~2_combout\ $end
$upscope $end
$upscope $end
$enddefinitions $end
#0
$dumpvars
1!
0"
0#
0$
0%
0&
0'
1(
x)
1*
1+
1,
1-
1.
1/
00
01
02
03
04
15
06
07
08
09
0:
0;
0<
1=
$end
#10000
1&
14
16
1;
#20000
0&
1%
04
13
17
06
0;
#30000
1&
14
16
1:
0=
05
0!
#40000
0&
0%
1$
04
03
12
18
07
06
1;
#50000
1&
14
16
0:
1=
15
1!
#60000
0&
1%
04
13
17
06
1:
0=
05
0!
#70000
1&
14
16
#80000
0&
0%
0$
1#
04
03
02
11
19
08
07
06
0:
0;
1=
15
1!
#90000
1&
14
16
#100000
0&
1%
04
13
17
06
1:
1;
0=
05
0!
#110000
1&
14
16
0;
#120000
0&
0%
1$
04
03
12
18
07
06
0:
1=
15
1!
#130000
1&
14
16
1:
1;
0=
05
0!
#140000
0&
1%
04
13
17
06
0:
0;
1=
15
1!
#150000
1&
14
16
1:
1;
0=
05
0!
#160000
0&
0%
0$
0#
1"
04
03
02
01
10
1<
09
08
07
06
0:
0;
#170000
1&
14
16
1;
1=
15
1!
#180000
0&
1%
04
13
17
06
0;
0=
05
0!
#190000
1&
14
16
1:
1=
15
1!
#200000
0&
0%
1$
04
03
12
18
07
06
1;
0=
05
0!
#210000
1&
14
16
0:
1=
15
1!
#220000
0&
1%
04
13
17
06
1:
0=
05
0!
#230000
1&
14
16
#240000
0&
0%
0$
1#
04
03
02
11
19
08
07
06
0:
0;
#250000
1&
14
16
#260000
0&
1%
04
13
17
06
1:
1;
#270000
1&
14
16
0;
1=
15
1!
#280000
0&
0%
1$
04
03
12
18
07
06
0:
0=
05
0!
#290000
1&
14
16
1:
1;
#300000
0&
1%
04
13
17
06
0:
0;
#310000
1&
14
16
1:
1;
